{
    "nativeSymbol": "NAT",
    "nativeFtsoDecimals": 5,
    "wrappedNativeName": "Wrapped NAT",
    "wrappedNativeSymbol": "WNAT",
    "stateConnectorAddress": "0x1000000000000000000000000000000000000001",
    "flareDaemonAddress": "0x1000000000000000000000000000000000000002",
    "priceSubmitterAddress": "0x1000000000000000000000000000000000000003",
    "deployerPrivateKey": "<use .env: DEPLOYER_PRIVATE_KEY>",
    "genesisGovernancePrivateKey": "<use .env: GENESIS_GOVERNANCE_PRIVATE_KEY>",
    "governancePrivateKey": "<use .env: GOVERNANCE_PRIVATE_KEY>",
    "governancePublicKey": "<use .env: GOVERNANCE_PUBLIC_KEY>",
    "burnAddress": "0x0000000000000000000000000000000000000000",
    "totalNativeSupplyNAT": 100000000000,
    "totalFoundationSupplyNAT": 0,
    "initialInflationPercentageBIPS": 1000,
    "scheduledInflationPercentageBIPS": [1000, 800, 600],
    "rewardEpochDurationSeconds": 3600,
    "revealEpochDurationSeconds": 45,
    "priceEpochDurationSeconds": 1800,
    "rewardEpochsStartDelayPriceEpochs": 3,
    "votePowerIntervalFraction": 4,
    "defaultVoterWhitelistSize": 100,
    "flareDaemonGasExceededHoldoffBlocks": 100,
    "maxVotePowerNatThresholdFraction": 10,
    "maxVotePowerAssetThresholdFraction": 10,
    "lowAssetThresholdUSDDec5": 200000000,
    "highAssetThresholdUSDDec5": 3000000000,
    "highAssetTurnoutThresholdBIPS": 100,
    "lowNatTurnoutThresholdBIPS": 300,
    "priceDeviationThresholdBIPS": 10000,
    "trustedAddresses": [
        "0xc783df8a850f42e7f7e57013759c285caa701eb6",
        "0xead9c93b79ae7c1591b1fb5323bd777e86e150d4",
        "0xe5904695748fe4a84b40b3fc79de2277660bd1d3",
        "0x92561f28ec438ee9831d00d1d59fbdc981b762b2",
        "0x2ffd013aaa7b5a7da93336c2251075202b33fb2b"
    ],
    "rewardFeePercentageUpdateOffsetEpochs": 3,
    "defaultRewardFeePercentageBIPS": 0,
    "ftsoRewardExpiryOffsetDays": 2,
    "dataAvailabilityRewardExpiryOffsetEpochs": 26,
    "initialWnatPriceUSDDec5": 0,
    "priceEpochCyclicBufferSize": 10,
    "inflationReceivers" : ["FtsoRewardManager","DataAvailabilityRewardManager"],
    "inflationSharingBIPS": [8000, 2000],
    "inflationTopUpTypes": [0, 0],
    "inflationTopUpFactorsx100": [300, 300],
    "inflationGasLimit": 2000000,
    "ftsoManagerGasLimit": 40000000,
    "deployDistributionContract": false,
    "deployDummyXAssetTokensAndMinters": false,
    "deployNATFtso": true,
    "NATMultiAssets": ["XRP", "LTC", "DOGE"],
    "assets": [
        {
            "assetSymbol": "XRP",
            "assetDecimals": 6,
            "ftsoDecimals": 5,
            "xAssetName": "xAsset XRP",
            "xAssetSymbol": "xXRP",
            "dummyAssetMinterMax": 7000000000,
            "initialPriceUSDDec5": 0
        },
        {
            "assetSymbol": "LTC",
            "assetDecimals": 8,
            "ftsoDecimals": 5,
            "xAssetName": "xAsset Litecoin",
            "xAssetSymbol": "xLTC",
            "dummyAssetMinterMax": 4000000000,
            "initialPriceUSDDec5": 0
        },
        {
            "assetSymbol": "XLM",
            "assetDecimals": 6,
            "ftsoDecimals": 5,
            "xAssetName": "xAsset XLM (Lumen)",
            "xAssetSymbol": "xXLM",
            "dummyAssetMinterMax": 7000000000,
            "initialPriceUSDDec5": 0
        },
        {
            "assetSymbol": "DOGE",
            "assetDecimals": 8,
            "ftsoDecimals": 5,
            "xAssetName": "xAsset Dogecoin",
            "xAssetSymbol": "xDOGE",
            "dummyAssetMinterMax": 13000000000000,
            "initialPriceUSDDec5": 0
        },
        {
            "assetSymbol": "ADA",
            "assetDecimals": 8,
            "ftsoDecimals": 5,
            "xAssetName": "xAsset ADA (Cardano)",
            "xAssetSymbol": "xADA",
            "dummyAssetMinterMax": 45000000000,
            "initialPriceUSDDec5": 0
        },
        {
            "assetSymbol": "ALGO",
            "assetDecimals": 8,
            "ftsoDecimals": 5,
            "xAssetName": "xAsset Algorand",
            "xAssetSymbol": "xALGO",
            "dummyAssetMinterMax": 5000000000,
            "initialPriceUSDDec5": 0
        },
        {
            "assetSymbol": "BCH",
            "assetDecimals": 8,
            "ftsoDecimals": 5,
            "xAssetName": "xAsset Bitcoin Cash",
            "xAssetSymbol": "xBCH",
            "dummyAssetMinterMax": 21000000000,
            "initialPriceUSDDec5": 0
        },
        {
            "assetSymbol": "DGB",
            "assetDecimals": 8,
            "ftsoDecimals": 5,
            "xAssetName": "xAsset Digibyte",
            "xAssetSymbol": "xDGB",
            "dummyAssetMinterMax": 10000000000,
            "initialPriceUSDDec5": 0
        },
        {
            "assetSymbol": "BTC",
            "assetDecimals": 6,
            "ftsoDecimals": 5,
            "xAssetName": "xAsset BTC",
            "xAssetSymbol": "xBTC",
            "dummyAssetMinterMax": 7000000000,
            "initialPriceUSDDec5": 0
        },
        {
            "assetSymbol": "ETH",
            "assetDecimals": 18,
            "ftsoDecimals": 5,
            "xAssetName": "xAsset ETH",
            "xAssetSymbol": "xETH",
            "dummyAssetMinterMax": 10000000000,
            "initialPriceUSDDec5": 0
        },
        {
            "assetSymbol": "FIL",
            "assetDecimals": 18,
            "ftsoDecimals": 5,
            "xAssetName": "xAsset FIL",
            "xAssetSymbol": "xFIL",
            "dummyAssetMinterMax": 10000000000,
            "initialPriceUSDDec5": 0
        }
    ]
}
